{
  "indexes": [
    {
      "collectionGroup": "products",
      "queryScope": "COLLECTION",
      "fields": [
        {
          "fieldPath": "code",
          "order": "ASCENDING"
        },
        {
          "fieldPath": "name",
          "order": "DESCENDING"
        }
      ]
    }
  ],
  "fieldOverrides": []
}
